[
    {
      "id": 1,
      "name": "serverHost",
      "value": "localhost:5000"
    },
    {
      "id": 2,
      "name": "selectorSize",
      "value": "5"
    },
    {
      "id": 3,
      "name": "pageSize",
      "value": "20"
    }
]