{
    "attached-files":"Archivos Adjuntos",
    "general-information":"Información General",
    "included-objects":"Objetos Incluidos",
    "products-used":"Productos Utilizados",
    "state-history":"Historial de Estados"
}