{
    "Client": [
        {
            "displayName": "Nombre",
            "field": "name"
        },
        {
            "displayName": "Apellido",
            "field": "surname"
        }
    ],
    "City": [
        {
            "displayName": "Ciudad",
            "field": "name"
        }
    ],
    "DeviceType": [
        {
            "displayName": "Tipo de equipo",
            "field": "name"
        }
    ],
    "IncludedItem": [
        {
            "displayName": "Item",
            "field": "name"
        }
    ],
    "Product": [
        {
            "displayName": "Producto",
            "field": "name"
        }
    ]
}